%!PS-Adobe-3.0 EPSF-3.0
%%Creator: cairo 1.12.14 (http://cairographics.org)
%%CreationDate: Thu May  2 20:18:43 2013
%%Pages: 1
%%DocumentData: Clean7Bit
%%LanguageLevel: 2
%%BoundingBox: 0 -1 257 257
%%EndComments
%%BeginProlog
save
50 dict begin
/q { gsave } bind def
/Q { grestore } bind def
/cm { 6 array astore concat } bind def
/w { setlinewidth } bind def
/J { setlinecap } bind def
/j { setlinejoin } bind def
/M { setmiterlimit } bind def
/d { setdash } bind def
/m { moveto } bind def
/l { lineto } bind def
/c { curveto } bind def
/h { closepath } bind def
/re { exch dup neg 3 1 roll 5 3 roll moveto 0 rlineto
      0 exch rlineto 0 rlineto closepath } bind def
/S { stroke } bind def
/f { fill } bind def
/f* { eofill } bind def
/n { newpath } bind def
/W { clip } bind def
/W* { eoclip } bind def
/BT { } bind def
/ET { } bind def
/pdfmark where { pop globaldict /?pdfmark /exec load put }
    { globaldict begin /?pdfmark /pop load def /pdfmark
    /cleartomark load def end } ifelse
/BDC { mark 3 1 roll /BDC pdfmark } bind def
/EMC { mark /EMC pdfmark } bind def
/cairo_store_point { /cairo_point_y exch def /cairo_point_x exch def } def
/Tj { show currentpoint cairo_store_point } bind def
/TJ {
  {
    dup
    type /stringtype eq
    { show } { -0.001 mul 0 cairo_font_matrix dtransform rmoveto } ifelse
  } forall
  currentpoint cairo_store_point
} bind def
/cairo_selectfont { cairo_font_matrix aload pop pop pop 0 0 6 array astore
    cairo_font exch selectfont cairo_point_x cairo_point_y moveto } bind def
/Tf { pop /cairo_font exch def /cairo_font_matrix where
      { pop cairo_selectfont } if } bind def
/Td { matrix translate cairo_font_matrix matrix concatmatrix dup
      /cairo_font_matrix exch def dup 4 get exch 5 get cairo_store_point
      /cairo_font where { pop cairo_selectfont } if } bind def
/Tm { 2 copy 8 2 roll 6 array astore /cairo_font_matrix exch def
      cairo_store_point /cairo_font where { pop cairo_selectfont } if } bind def
/g { setgray } bind def
/rg { setrgbcolor } bind def
/d1 { setcachedevice } bind def
%%EndProlog
%%Page: 1 1
%%BeginPageSetup
%%PageBoundingBox: 0 -1 257 257
%%EndPageSetup
q 0 -1 257 258 rectclip q
0 g
0.8 w
0 J
0 j
[] 0.0 d
4 M q 1 0 0 -1 0 256.799988 cm
0.398 0.398 256 256 re S Q
q 1 0 0 -1 0 256.799988 cm
128.398 0.398 m 128.398 256.398 l S Q
q 1 0 0 -1 0 256.799988 cm
256.398 128.398 m 0.398 128.398 l S Q
q 1 0 0 -1 0 256.799988 cm
192.398 0.398 m 192.398 128.398 l S Q
q 1 0 0 -1 0 256.799988 cm
128.398 64.398 m 256.398 64.398 l S Q
q 1 0 0 -1 0 256.799988 cm
160.398 64.398 m 160.398 96.398 l 192.398 96.398 l S Q
q 1 0 0 -1 0 256.799988 cm
64.398 128.398 m 64.398 256.398 l S Q
q 1 0 0 -1 0 256.799988 cm
0.398 192.398 m 128.398 192.398 l S Q
q 1 0 0 -1 0 256.799988 cm
96.398 128.398 m 96.398 192.398 l S Q
q 1 0 0 -1 0 256.799988 cm
64.398 160.398 m 128.398 160.398 l S Q
q 1 0 0 -1 0 256.799988 cm
160.398 64.398 m 160.398 128.398 l S Q
q 1 0 0 -1 0 256.799988 cm
192.398 96.398 m 128.398 96.398 l S Q
q 1 0 0 -1 0 256.799988 cm
128.398 192.398 m 256.398 192.398 l S Q
q 1 0 0 -1 0 256.799988 cm
192.398 128.398 m 192.398 256.398 l S Q
q 1 0 0 -1 0 256.799988 cm
64.398 128.398 m 64.398 0.398 l S Q
q 1 0 0 -1 0 256.799988 cm
0.398 64.398 m 128.398 64.398 l S Q
q 1 0 0 -1 0 256.799988 cm
96.398 64.398 m 96.398 128.398 l S Q
q 1 0 0 -1 0 256.799988 cm
64.398 96.398 m 128.398 96.398 l S Q
q 1 0 0 -1 0 256.799988 cm
160.398 128.398 m 160.398 192.398 l S Q
q 1 0 0 -1 0 256.799988 cm
128.398 160.398 m 192.398 160.398 l S Q
q 1 0 0 -1 0 256.799988 cm
96.398 64.398 m 96.398 0.398 l S Q
q 1 0 0 -1 0 256.799988 cm
64.398 32.398 m 128.398 32.398 l S Q
q 1 0 0 -1 0 256.799988 cm
112.398 96.398 m 112.398 160.398 l S Q
q 1 0 0 -1 0 256.799988 cm
144.398 96.398 m 144.398 160.398 l S Q
q 1 0 0 -1 0 256.799988 cm
96.398 112.398 m 160.398 112.398 l S Q
q 1 0 0 -1 0 256.799988 cm
96.398 144.398 m 160.398 144.398 l S Q
q 1 0 0 -1 0 256.799988 cm
112.398 160.398 m 112.398 192.398 l S Q
q 1 0 0 -1 0 256.799988 cm
96.398 176.398 m 128.398 176.398 l S Q
q 1 0 0 -1 0 256.799988 cm
176.398 64.398 m 176.398 96.398 l S Q
q 1 0 0 -1 0 256.799988 cm
160.398 80.398 m 192.398 80.398 l S Q
q 1 0 0 -1 0 256.799988 cm
80.398 32.398 m 80.398 64.398 l S Q
q 1 0 0 -1 0 256.799988 cm
64.398 48.398 m 96.398 48.398 l S Q
q 1 0 0 -1 0 256.799988 cm
88.398 32.398 m 88.398 48.398 l S Q
q 1 0 0 -1 0 256.799988 cm
80.398 40.398 m 96.398 40.398 l S Q
q 1 0 0 -1 0 256.799988 cm
120.398 96.398 m 120.398 112.398 l S Q
q 1 0 0 -1 0 256.799988 cm
112.398 104.398 m 128.398 104.398 l S Q
q 1 0 0 -1 0 256.799988 cm
120.398 112.398 m 120.398 128.398 l S Q
q 1 0 0 -1 0 256.799988 cm
112.398 120.398 m 144.398 120.398 l S Q
q 1 0 0 -1 0 256.799988 cm
136.398 112.398 m 136.398 128.398 l S Q
q 1 0 0 -1 0 256.799988 cm
120.398 128.398 m 120.398 144.398 l S Q
q 1 0 0 -1 0 256.799988 cm
112.398 136.398 m 128.398 136.398 l S Q
q 1 0 0 -1 0 256.799988 cm
160.398 136.398 m 128.398 136.398 l S Q
q 1 0 0 -1 0 256.799988 cm
136.398 128.398 m 136.398 144.398 l S Q
q 1 0 0 -1 0 256.799988 cm
152.398 128.398 m 152.398 144.398 l S Q
86.203 220.675 m 86.203 219.57 85.309 218.675 84.203 218.675 c 83.098 218.675
 82.203 219.57 82.203 220.675 c 82.203 221.78 83.098 222.675 84.203 222.675
 c 85.309 222.675 86.203 221.78 86.203 220.675 c h
f
94.309 211.796 m 94.309 210.691 93.414 209.796 92.309 209.796 c 91.203 
209.796 90.309 210.691 90.309 211.796 c 90.309 212.902 91.203 213.796 92.309
 213.796 c 93.414 213.796 94.309 212.902 94.309 211.796 c h
f
42.398 181.902 m 42.398 180.796 41.504 179.902 40.398 179.902 c 39.297 
179.902 38.398 180.796 38.398 181.902 c 38.398 183.003 39.297 183.902 40.398
 183.902 c 41.504 183.902 42.398 183.003 42.398 181.902 c h
f
146.898 208.402 m 146.898 207.296 146.004 206.402 144.898 206.402 c 143.797
 206.402 142.898 207.296 142.898 208.402 c 142.898 209.503 143.797 210.402
 144.898 210.402 c 146.004 210.402 146.898 209.503 146.898 208.402 c h
f
186.398 184.402 m 186.398 183.296 185.504 182.402 184.398 182.402 c 183.297
 182.402 182.398 183.296 182.398 184.402 c 182.398 185.503 183.297 186.402
 184.398 186.402 c 185.504 186.402 186.398 185.503 186.398 184.402 c h
f
180.898 162.902 m 180.898 161.796 180.004 160.902 178.898 160.902 c 177.797
 160.902 176.898 161.796 176.898 162.902 c 176.898 164.003 177.797 164.902
 178.898 164.902 c 180.004 164.902 180.898 164.003 180.898 162.902 c h
f
230.898 171.402 m 230.898 170.296 230.004 169.402 228.898 169.402 c 227.797
 169.402 226.898 170.296 226.898 171.402 c 226.898 172.503 227.797 173.402
 228.898 173.402 c 230.004 173.402 230.898 172.503 230.898 171.402 c h
f
148.898 175.402 m 148.898 174.296 148.004 173.402 146.898 173.402 c 145.797
 173.402 144.898 174.296 144.898 175.402 c 144.898 176.503 145.797 177.402
 146.898 177.402 c 148.004 177.402 148.898 176.503 148.898 175.402 c h
f
125.398 186.402 m 125.398 185.296 124.504 184.402 123.398 184.402 c 122.297
 184.402 121.398 185.296 121.398 186.402 c 121.398 187.503 122.297 188.402
 123.398 188.402 c 124.504 188.402 125.398 187.503 125.398 186.402 c h
f
75.898 183.402 m 75.898 182.296 75.004 181.402 73.898 181.402 c 72.797 
181.402 71.898 182.296 71.898 183.402 c 71.898 184.503 72.797 185.402 73.898
 185.402 c 75.004 185.402 75.898 184.503 75.898 183.402 c h
f
101.898 148.402 m 101.898 147.296 101.004 146.402 99.898 146.402 c 98.797
 146.402 97.898 147.296 97.898 148.402 c 97.898 149.503 98.797 150.402 99.898
 150.402 c 101.004 150.402 101.898 149.503 101.898 148.402 c h
f
118.398 156.902 m 118.398 155.796 117.504 154.902 116.398 154.902 c 115.297
 154.902 114.398 155.796 114.398 156.902 c 114.398 158.003 115.297 158.902
 116.398 158.902 c 117.504 158.902 118.398 158.003 118.398 156.902 c h
f
127.898 146.402 m 127.898 145.296 127.004 144.402 125.898 144.402 c 124.797
 144.402 123.898 145.296 123.898 146.402 c 123.898 147.503 124.797 148.402
 125.898 148.402 c 127.004 148.402 127.898 147.503 127.898 146.402 c h
f
117.398 140.402 m 117.398 139.296 116.504 138.402 115.398 138.402 c 114.297
 138.402 113.398 139.296 113.398 140.402 c 113.398 141.503 114.297 142.402
 115.398 142.402 c 116.504 142.402 117.398 141.503 117.398 140.402 c h
f
135.398 132.402 m 135.398 131.296 134.504 130.402 133.398 130.402 c 132.297
 130.402 131.398 131.296 131.398 132.402 c 131.398 133.503 132.297 134.402
 133.398 134.402 c 134.504 134.402 135.398 133.503 135.398 132.402 c h
f
143.398 142.402 m 143.398 141.296 142.504 140.402 141.398 140.402 c 140.297
 140.402 139.398 141.296 139.398 142.402 c 139.398 143.503 140.297 144.402
 141.398 144.402 c 142.504 144.402 143.398 143.503 143.398 142.402 c h
f
143.398 131.902 m 143.398 130.796 142.504 129.902 141.398 129.902 c 140.297
 129.902 139.398 130.796 139.398 131.902 c 139.398 133.003 140.297 133.902
 141.398 133.902 c 142.504 133.902 143.398 133.003 143.398 131.902 c h
f
151.898 142.402 m 151.898 141.296 151.004 140.402 149.898 140.402 c 148.797
 140.402 147.898 141.296 147.898 142.402 c 147.898 143.503 148.797 144.402
 149.898 144.402 c 151.004 144.402 151.898 143.503 151.898 142.402 c h
f
10.398 70.402 m 10.398 69.296 9.504 68.402 8.398 68.402 c 7.297 68.402 
6.398 69.296 6.398 70.402 c 6.398 71.503 7.297 72.402 8.398 72.402 c 9.504
 72.402 10.398 71.503 10.398 70.402 c h
f
72.898 124.402 m 72.898 123.296 72.004 122.402 70.898 122.402 c 69.797 
122.402 68.898 123.296 68.898 124.402 c 68.898 125.503 69.797 126.402 70.898
 126.402 c 72.004 126.402 72.898 125.503 72.898 124.402 c h
f
118.898 124.402 m 118.898 123.296 118.004 122.402 116.898 122.402 c 115.797
 122.402 114.898 123.296 114.898 124.402 c 114.898 125.503 115.797 126.402
 116.898 126.402 c 118.004 126.402 118.898 125.503 118.898 124.402 c h
f
126.398 123.402 m 126.398 122.296 125.504 121.402 124.398 121.402 c 123.297
 121.402 122.398 122.296 122.398 123.402 c 122.398 124.503 123.297 125.402
 124.398 125.402 c 125.504 125.402 126.398 124.503 126.398 123.402 c h
f
108.398 107.402 m 108.398 106.296 107.504 105.402 106.398 105.402 c 105.297
 105.402 104.398 106.296 104.398 107.402 c 104.398 108.503 105.297 109.402
 106.398 109.402 c 107.504 109.402 108.398 108.503 108.398 107.402 c h
f
121.398 102.402 m 121.398 101.296 120.504 100.402 119.398 100.402 c 118.297
 100.402 117.398 101.296 117.398 102.402 c 117.398 103.503 118.297 104.402
 119.398 104.402 c 120.504 104.402 121.398 103.503 121.398 102.402 c h
f
107.898 89.402 m 107.898 88.296 107.004 87.402 105.898 87.402 c 104.797
 87.402 103.898 88.296 103.898 89.402 c 103.898 90.503 104.797 91.402 105.898
 91.402 c 107.004 91.402 107.898 90.503 107.898 89.402 c h
f
124.398 83.402 m 124.398 82.296 123.504 81.402 122.398 81.402 c 121.297
 81.402 120.398 82.296 120.398 83.402 c 120.398 84.503 121.297 85.402 122.398
 85.402 c 123.504 85.402 124.398 84.503 124.398 83.402 c h
f
158.398 68.902 m 158.398 67.796 157.504 66.902 156.398 66.902 c 155.297
 66.902 154.398 67.796 154.398 68.902 c 154.398 70.003 155.297 70.902 156.398
 70.902 c 157.504 70.902 158.398 70.003 158.398 68.902 c h
f
173.898 102.402 m 173.898 101.296 173.004 100.402 171.898 100.402 c 170.797
 100.402 169.898 101.296 169.898 102.402 c 169.898 103.503 170.797 104.402
 171.898 104.402 c 173.004 104.402 173.898 103.503 173.898 102.402 c h
f
135.398 114.902 m 135.398 113.796 134.504 112.902 133.398 112.902 c 132.297
 112.902 131.398 113.796 131.398 114.902 c 131.398 116.003 132.297 116.902
 133.398 116.902 c 134.504 116.902 135.398 116.003 135.398 114.902 c h
f
134.398 124.902 m 134.398 123.796 133.504 122.902 132.398 122.902 c 131.297
 122.902 130.398 123.796 130.398 124.902 c 130.398 126.003 131.297 126.902
 132.398 126.902 c 133.504 126.902 134.398 126.003 134.398 124.902 c h
f
149.898 115.402 m 149.898 114.296 149.004 113.402 147.898 113.402 c 146.797
 113.402 145.898 114.296 145.898 115.402 c 145.898 116.503 146.797 117.402
 147.898 117.402 c 149.004 117.402 149.898 116.503 149.898 115.402 c h
f
159.398 116.402 m 159.398 115.296 158.504 114.402 157.398 114.402 c 156.297
 114.402 155.398 115.296 155.398 116.402 c 155.398 117.503 156.297 118.402
 157.398 118.402 c 158.504 118.402 159.398 117.503 159.398 116.402 c h
f
204.898 120.402 m 204.898 119.296 204.004 118.402 202.898 118.402 c 201.797
 118.402 200.898 119.296 200.898 120.402 c 200.898 121.503 201.797 122.402
 202.898 122.402 c 204.004 122.402 204.898 121.503 204.898 120.402 c h
f
250.898 57.902 m 250.898 56.796 250.004 55.902 248.898 55.902 c 247.797
 55.902 246.898 56.796 246.898 57.902 c 246.898 59.003 247.797 59.902 248.898
 59.902 c 250.004 59.902 250.898 59.003 250.898 57.902 c h
f
78.398 54.402 m 78.398 53.296 77.504 52.402 76.398 52.402 c 75.297 52.402
 74.398 53.296 74.398 54.402 c 74.398 55.503 75.297 56.402 76.398 56.402
 c 77.504 56.402 78.398 55.503 78.398 54.402 c h
f
Q Q
showpage
%%Trailer
end restore
%%EOF
