%!PS-Adobe-3.0 EPSF-3.0
%%Creator: cairo 1.12.14 (http://cairographics.org)
%%CreationDate: Fri May  3 14:47:04 2013
%%Pages: 1
%%DocumentData: Clean7Bit
%%LanguageLevel: 2
%%BoundingBox: 0 -1 993 289
%%EndComments
%%BeginProlog
save
50 dict begin
/q { gsave } bind def
/Q { grestore } bind def
/cm { 6 array astore concat } bind def
/w { setlinewidth } bind def
/J { setlinecap } bind def
/j { setlinejoin } bind def
/M { setmiterlimit } bind def
/d { setdash } bind def
/m { moveto } bind def
/l { lineto } bind def
/c { curveto } bind def
/h { closepath } bind def
/re { exch dup neg 3 1 roll 5 3 roll moveto 0 rlineto
      0 exch rlineto 0 rlineto closepath } bind def
/S { stroke } bind def
/f { fill } bind def
/f* { eofill } bind def
/n { newpath } bind def
/W { clip } bind def
/W* { eoclip } bind def
/BT { } bind def
/ET { } bind def
/pdfmark where { pop globaldict /?pdfmark /exec load put }
    { globaldict begin /?pdfmark /pop load def /pdfmark
    /cleartomark load def end } ifelse
/BDC { mark 3 1 roll /BDC pdfmark } bind def
/EMC { mark /EMC pdfmark } bind def
/cairo_store_point { /cairo_point_y exch def /cairo_point_x exch def } def
/Tj { show currentpoint cairo_store_point } bind def
/TJ {
  {
    dup
    type /stringtype eq
    { show } { -0.001 mul 0 cairo_font_matrix dtransform rmoveto } ifelse
  } forall
  currentpoint cairo_store_point
} bind def
/cairo_selectfont { cairo_font_matrix aload pop pop pop 0 0 6 array astore
    cairo_font exch selectfont cairo_point_x cairo_point_y moveto } bind def
/Tf { pop /cairo_font exch def /cairo_font_matrix where
      { pop cairo_selectfont } if } bind def
/Td { matrix translate cairo_font_matrix matrix concatmatrix dup
      /cairo_font_matrix exch def dup 4 get exch 5 get cairo_store_point
      /cairo_font where { pop cairo_selectfont } if } bind def
/Tm { 2 copy 8 2 roll 6 array astore /cairo_font_matrix exch def
      cairo_store_point /cairo_font where { pop cairo_selectfont } if } bind def
/g { setgray } bind def
/rg { setrgbcolor } bind def
/d1 { setcachedevice } bind def
%%EndProlog
%%Page: 1 1
%%BeginPageSetup
%%PageBoundingBox: 0 -1 993 289
%%EndPageSetup
q 0 -1 993 290 rectclip q
0 g
0.8 w
0 J
0 j
[] 0.0 d
4 M q 1 0 0 -1 0 288.799988 cm
478.801 0.391 32 32 re S Q
q 1 0 0 -1 0 288.799988 cm
94.398 128.391 32 32 re S Q
q 1 0 0 -1 0 288.799988 cm
352.398 128.391 32 32 re S Q
q 1 0 0 -1 0 288.799988 cm
608.398 128.391 32 32 re S Q
q 1 0 0 -1 0 288.799988 cm
864.398 128.391 32 32 re S Q
1 g
640.398 32.409 32 -32 re f
0 g
q 1 0 0 -1 0 288.799988 cm
640.398 256.391 32 32 re S Q
q 1 0 0 -1 0 288.799988 cm
960.398 256.391 32 32 re S Q
0 1 0 rg
512.398 32.409 32 -32 re f
0 g
q 1 0 0 -1 0 288.799988 cm
512.398 256.391 32 32 re S Q
0 1 0 rg
704.398 32.409 32 -32 re f
0 g
q 1 0 0 -1 0 288.799988 cm
704.398 256.391 32 32 re S Q
0 1 0 rg
768.398 32.409 32 -32 re f
0 g
q 1 0 0 -1 0 288.799988 cm
768.398 256.391 32 32 re S Q
0 1 0 rg
576.398 32.409 32 -32 re f
0 g
q 1 0 0 -1 0 288.799988 cm
576.398 256.391 32 32 re S Q
0 1 0 rg
192.398 32.409 32 -32 re f
0 g
q 1 0 0 -1 0 288.799988 cm
192.398 256.391 32 32 re S Q
q 1 0 0 -1 0 288.799988 cm
832.398 256.391 32 32 re S Q
q 1 0 0 -1 0 288.799988 cm
128.398 256.391 32 32 re S Q
0 1 0 rg
64.398 32.409 32 -32 re f
0 g
q 1 0 0 -1 0 288.799988 cm
64.398 256.391 32 32 re S Q
0 1 0 rg
896.398 32.409 32 -32 re f
0 g
q 1 0 0 -1 0 288.799988 cm
896.398 256.391 32 32 re S Q
q 1 0 0 -1 0 288.799988 cm
0.398 256.391 32 32 re S Q
1 0 1 rg
95.41 144.601 m 95.41 159.456 l 125.121 159.456 l 125.121 129.745 l 95.41
 129.745 l h
f
353.695 144.601 m 353.695 159.456 l 383.41 159.456 l 383.41 129.745 l 353.695
 129.745 l h
f
609.695 144.601 m 609.695 159.456 l 639.41 159.456 l 639.41 129.745 l 609.695
 129.745 l h
f
865.695 144.601 m 865.695 159.456 l 895.41 159.456 l 895.41 129.745 l 865.695
 129.745 l h
f
0 g
q 1 0 0 -1 0 288.799988 cm
782.801 256.391 m 878.801 160.391 l S Q
q 1 0 0 -1 0 288.799988 cm
910.801 256.391 m 878.801 160.391 l S Q
q 1 0 0 -1 0 288.799988 cm
622.801 160.391 m 590.801 256.391 l S Q
q 1 0 0 -1 0 288.799988 cm
622.801 160.391 m 526.801 256.391 l S Q
q 1 0 0 -1 0 288.799988 cm
494.801 32.391 m 622.801 128.391 l S Q
q 1 0 0 -1 0 288.799988 cm
878.801 128.391 m 494.801 32.391 l S Q
q 1 0 0 -1 0 288.799988 cm
110.801 128.391 m 494.801 32.391 l S Q
q 1 0 0 -1 0 288.799988 cm
206.801 256.391 m 110.801 160.391 l S Q
1 g
110.801 128.409 m 78.801 32.409 l f
0 g
q 1 0 0 -1 0 288.799988 cm
110.801 160.391 m 78.801 256.391 l S Q
1 g
353.695 144.601 m 353.695 159.456 l 383.41 159.456 l 383.41 129.745 l 353.695
 129.745 l h
f
129.695 16.601 m 129.695 31.456 l 159.41 31.456 l 159.41 1.745 l 129.695
 1.745 l h
f
0.501961 0.2 0 rg
1.695 16.601 m 1.695 31.456 l 31.41 31.456 l 31.41 1.745 l 1.695 1.745 
l h
f
479.41 272.601 m 479.41 287.456 l 510.266 287.456 l 510.266 257.745 l 479.41
 257.745 l h
f
1 g
1.695 16.601 m 1.695 31.456 l 31.41 31.456 l 31.41 1.745 l 1.695 1.745 
l h
f
0 g
q 1 0 0 -1 0 288.799988 cm
718.801 256.391 m 622.801 160.391 l S Q
Q Q
showpage
%%Trailer
end restore
%%EOF
